waveform/memory.vcd
$date
	Sun Nov 09 00:13:53 2025
$end
$version
	Icarus Verilog
$end
$timescale
	1s
$end
$scope module tb $end
$var wire 32 ! m_o_load_data_1 [31:0] $end
$var wire 32 " m_o_load_data_2 [31:0] $end
$var integer 32 # i [31:0] $end
$var reg 1 $ m_clk $end
$var reg 32 % m_i_alu_value_1 [31:0] $end
$var reg 32 & m_i_alu_value_2 [31:0] $end
$var reg 1 ' m_i_ce $end
$var reg 32 ( m_i_data_rs_1 [31:0] $end
$var reg 32 ) m_i_data_rs_2 [31:0] $end
$var reg 4 * m_i_mask_1 [3:0] $end
$var reg 4 + m_i_mask_2 [3:0] $end
$var reg 1 , m_i_wr_en_1 $end
$var reg 1 - m_i_wr_en_2 $end
$var reg 1 . m_rst $end
$scope module m $end
$var wire 1 / m_clk $end
$var wire 32 0 m_i_alu_value_1 [31:0] $end
$var wire 32 1 m_i_alu_value_2 [31:0] $end
$var wire 1 2 m_i_ce $end
$var wire 32 3 m_i_data_rs_1 [31:0] $end
$var wire 32 4 m_i_data_rs_2 [31:0] $end
$var wire 4 5 m_i_mask_1 [3:0] $end
$var wire 4 6 m_i_mask_2 [3:0] $end
$var wire 1 7 m_i_wr_en_1 $end
$var wire 1 8 m_i_wr_en_2 $end
$var wire 32 9 m_o_load_data_1 [31:0] $end
$var wire 32 : m_o_load_data_2 [31:0] $end
$var wire 1 ; m_rst $end
$var integer 32 < i [31:0] $end
$upscope $end
$scope task load_data_1 $end
$var reg 32 = addr [31:0] $end
$upscope $end
$scope task load_data_2 $end
$var reg 32 > addr [31:0] $end
$upscope $end
$scope task reset $end
$var integer 32 ? cycles [31:0] $end
$upscope $end
$scope task store_data_1 $end
$var reg 32 @ addr [31:0] $end
$var reg 32 A data [31:0] $end
$var reg 4 B mask [3:0] $end
$upscope $end
$scope task store_data_2 $end
$var reg 32 C addr [31:0] $end
$var reg 32 D data [31:0] $end
$var reg 4 E mask [3:0] $end
$upscope $end
$upscope $end
$enddefinitions $end
#0
$dumpvars
bx E
bx D
bx C
bx B
bx A
bx @
b10 ?
bx >
bx =
b100000 <
0;
bx :
bx 9
x8
x7
bx 6
bx 5
bx 4
bx 3
x2
bx 1
bx 0
0/
0.
x-
x,
bx +
bx *
bx )
bx (
x'
bx &
bx %
0$
bx #
bx "
bx !
$end
#5
1$
1/
#10
b100000 <
0$
0/
#15
1.
1;
1$
1/
#20
0$
0/
#25
b11 @
b10101010101110111100110011011101 A
b1111 B
1$
1/
#30
0$
0/
#35
b10101010101110111100110011011101 (
b10101010101110111100110011011101 3
b11 %
b11 0
b11 !
b11 9
b1111 *
b1111 5
1,
17
1'
12
1$
1/
#40
b11011101 !
b11011101 9
0$
0/
#45
b11 =
0,
07
1$
1/
#50
0$
0/
#55
1$
1/
#60
0$
0/
#65
b100 C
b1110111011111111 D
b11 E
1$
1/
#70
0$
0/
#75
b1110111011111111 )
b1110111011111111 4
b100 &
b100 1
b100 "
b100 :
b11 +
b11 6
1-
18
1$
1/
#80
b11111111 "
b11111111 :
0$
0/
#85
b100 >
0-
08
1$
1/
#90
0$
0/
#95
1$
1/
#100
0$
0/
#105
b101 @
b10011001 A
b1 B
1$
1/
#110
0$
0/
#115
b10011001 (
b10011001 3
b101 %
b101 0
b101 !
b101 9
b1 *
b1 5
1,
17
1$
1/
#120
b10011001 !
b10011001 9
0$
0/
#125
b101 =
0,
07
1$
1/
#130
0$
0/
#135
1$
1/
#140
0$
0/
#145
b0 @
b1000 A
b1111 B
b0 #
1$
1/
#150
0$
0/
#155
b1000 (
b1000 3
b0 %
b0 0
b0 !
b0 9
b1111 *
b1111 5
1,
17
1$
1/
#160
b1000 !
b1000 9
0$
0/
#165
b0 C
b1000 D
b1111 E
0,
07
1$
1/
#170
0$
0/
#175
b1000 )
b1000 4
b0 &
b0 1
b0 "
b0 :
b1111 +
b1111 6
1-
18
1$
1/
#180
b1000 "
b1000 :
0$
0/
#185
b1 @
b11000 A
b1 #
0-
08
1$
1/
#190
0$
0/
#195
b11000 (
b11000 3
b1 %
b1 0
b1 !
b1 9
1,
17
1$
1/
#200
b11000 !
b11000 9
0$
0/
#205
b1 C
b11000 D
0,
07
1$
1/
#210
0$
0/
#215
b11000 )
b11000 4
b1 &
b1 1
b1 "
b1 :
1-
18
1$
1/
#220
b11000 "
b11000 :
0$
0/
#225
b10 @
b101000 A
b10 #
0-
08
1$
1/
#230
0$
0/
#235
b101000 (
b101000 3
b10 %
b10 0
b10 !
b10 9
1,
17
1$
1/
#240
b101000 !
b101000 9
0$
0/
#245
b10 C
b101000 D
0,
07
1$
1/
#250
0$
0/
#255
b101000 )
b101000 4
b10 &
b10 1
b10 "
b10 :
1-
18
1$
1/
#260
b101000 "
b101000 :
0$
0/
#265
b11 @
b111000 A
b11 #
0-
08
1$
1/
#270
0$
0/
#275
b111000 (
b111000 3
b11 %
b11 0
b11011101 !
b11011101 9
1,
17
1$
1/
#280
b111000 !
b111000 9
0$
0/
#285
b11 C
b111000 D
0,
07
1$
1/
#290
0$
0/
#295
b111000 )
b111000 4
b11 &
b11 1
b11 "
b11 :
1-
18
1$
1/
#300
b111000 "
b111000 :
0$
0/
#305
b100 @
b1001000 A
b100 #
0-
08
1$
1/
#310
0$
0/
#315
b1001000 (
b1001000 3
b100 %
b100 0
b100 !
b100 9
1,
17
1$
1/
#320
b1001000 !
b1001000 9
0$
0/
#325
b100 C
b1001000 D
0,
07
1$
1/
#330
0$
0/
#335
b1001000 )
b1001000 4
b100 &
b100 1
b11111111 "
b11111111 :
1-
18
1$
1/
#340
b1001000 "
b1001000 :
0$
0/
#345
b101 @
b1011000 A
b101 #
0-
08
1$
1/
#350
0$
0/
#355
b1011000 (
b1011000 3
b101 %
b101 0
b10011001 !
b10011001 9
1,
17
1$
1/
#360
b1011000 !
b1011000 9
0$
0/
#365
b101 C
b1011000 D
0,
07
1$
1/
#370
0$
0/
#375
b1011000 )
b1011000 4
b101 &
b101 1
b101 "
b101 :
1-
18
1$
1/
#380
b1011000 "
b1011000 :
0$
0/
#385
b110 @
b1101000 A
b110 #
0-
08
1$
1/
#390
0$
0/
#395
b1101000 (
b1101000 3
b110 %
b110 0
b110 !
b110 9
1,
17
1$
1/
#400
b1101000 !
b1101000 9
0$
0/
#405
b110 C
b1101000 D
0,
07
1$
1/
#410
0$
0/
#415
b1101000 )
b1101000 4
b110 &
b110 1
b110 "
b110 :
1-
18
1$
1/
#420
b1101000 "
b1101000 :
0$
0/
#425
b111 @
b1111000 A
b111 #
0-
08
1$
1/
#430
0$
0/
#435
b1111000 (
b1111000 3
b111 %
b111 0
b111 !
b111 9
1,
17
1$
1/
#440
b1111000 !
b1111000 9
0$
0/
#445
b111 C
b1111000 D
0,
07
1$
1/
#450
0$
0/
#455
b1111000 )
b1111000 4
b111 &
b111 1
b111 "
b111 :
1-
18
1$
1/
#460
b1111000 "
b1111000 :
0$
0/
#465
b0 =
b0 #
0-
08
1$
1/
#470
0$
0/
#475
b0 %
b0 0
b1000 !
b1000 9
1$
1/
#480
0$
0/
#485
b0 >
1$
1/
#490
0$
0/
#495
b0 &
b0 1
b1000 "
b1000 :
1$
1/
#500
0$
0/
#505
b1 =
b1 #
1$
1/
#510
0$
0/
#515
b1 %
b1 0
b11000 !
b11000 9
1$
1/
#520
0$
0/
#525
b1 >
1$
1/
#530
0$
0/
#535
b1 &
b1 1
b11000 "
b11000 :
1$
1/
#540
0$
0/
#545
b10 =
b10 #
1$
1/
#550
0$
0/
#555
b10 %
b10 0
b101000 !
b101000 9
1$
1/
#560
0$
0/
#565
b10 >
1$
1/
#570
0$
0/
#575
b10 &
b10 1
b101000 "
b101000 :
1$
1/
#580
0$
0/
#585
b11 =
b11 #
1$
1/
#590
0$
0/
#595
b11 %
b11 0
b111000 !
b111000 9
1$
1/
#600
0$
0/
#605
b11 >
1$
1/
#610
0$
0/
#615
b11 &
b11 1
b111000 "
b111000 :
1$
1/
#620
0$
0/
#625
b100 =
b100 #
1$
1/
#630
0$
0/
#635
b100 %
b100 0
b1001000 !
b1001000 9
1$
1/
#640
0$
0/
#645
b100 >
1$
1/
#650
0$
0/
#655
b100 &
b100 1
b1001000 "
b1001000 :
1$
1/
#660
0$
0/
#665
b101 =
b101 #
1$
1/
#670
0$
0/
#675
b101 %
b101 0
b1011000 !
b1011000 9
1$
1/
#680
0$
0/
#685
b101 >
1$
1/
#690
0$
0/
#695
b101 &
b101 1
b1011000 "
b1011000 :
1$
1/
#700
0$
0/
#705
b110 =
b110 #
1$
1/
#710
0$
0/
#715
b110 %
b110 0
b1101000 !
b1101000 9
1$
1/
#720
0$
0/
#725
b110 >
1$
1/
#730
0$
0/
#735
b110 &
b110 1
b1101000 "
b1101000 :
1$
1/
#740
0$
0/
#745
b111 =
b111 #
1$
1/
#750
0$
0/
#755
b111 %
b111 0
b1111000 !
b1111000 9
1$
1/
#760
0$
0/
#765
b111 >
1$
1/
#770
0$
0/
#775
b111 &
b111 1
b1111000 "
b1111000 :
1$
1/
#780
0$
0/
#785
b1000 #
1$
1/
