waveform/register.vcd
$date
	Mon Nov 03 16:49:51 2025
$end
$version
	Icarus Verilog
$end
$timescale
	1s
$end
$scope module tb_register $end
$var wire 32 ! r_o_data_rs_1 [31:0] $end
$var wire 32 " r_o_data_rs_2 [31:0] $end
$var wire 32 # r_o_data_rt_1 [31:0] $end
$var wire 32 $ r_o_data_rt_2 [31:0] $end
$var integer 32 % i [31:0] $end
$var reg 1 & r_clk $end
$var reg 5 ' r_i_addr_rd_1 [4:0] $end
$var reg 5 ( r_i_addr_rd_2 [4:0] $end
$var reg 5 ) r_i_addr_rs_1 [4:0] $end
$var reg 5 * r_i_addr_rs_2 [4:0] $end
$var reg 5 + r_i_addr_rt_1 [4:0] $end
$var reg 5 , r_i_addr_rt_2 [4:0] $end
$var reg 32 - r_i_data_rd_1 [31:0] $end
$var reg 32 . r_i_data_rd_2 [31:0] $end
$var reg 1 / r_rst $end
$var reg 1 0 r_wr_en_1 $end
$var reg 1 1 r_wr_en_2 $end
$scope module r_eg $end
$var wire 1 2 r_clk $end
$var wire 5 3 r_i_addr_rd_1 [4:0] $end
$var wire 5 4 r_i_addr_rd_2 [4:0] $end
$var wire 5 5 r_i_addr_rs_1 [4:0] $end
$var wire 5 6 r_i_addr_rs_2 [4:0] $end
$var wire 5 7 r_i_addr_rt_1 [4:0] $end
$var wire 5 8 r_i_addr_rt_2 [4:0] $end
$var wire 32 9 r_i_data_rd_1 [31:0] $end
$var wire 32 : r_i_data_rd_2 [31:0] $end
$var wire 32 ; r_o_data_rs_1 [31:0] $end
$var wire 32 < r_o_data_rs_2 [31:0] $end
$var wire 32 = r_o_data_rt_1 [31:0] $end
$var wire 32 > r_o_data_rt_2 [31:0] $end
$var wire 1 ? r_rst $end
$var wire 1 @ r_wr_en_1 $end
$var wire 1 A r_wr_en_2 $end
$var integer 32 B i [31:0] $end
$upscope $end
$scope task display $end
$var integer 32 C counter [31:0] $end
$upscope $end
$scope task load_1 $end
$var integer 32 D counter [31:0] $end
$upscope $end
$scope task reset $end
$var integer 32 E counter [31:0] $end
$upscope $end
$upscope $end
$enddefinitions $end
#0
$dumpvars
b10 E
bx D
bx C
bx B
0A
0@
1?
bx >
bx =
bx <
bx ;
b0 :
b0 9
b0 8
b0 7
b0 6
b0 5
b0 4
b0 3
02
01
00
1/
b0 .
b0 -
b0 ,
b0 +
b0 *
b0 )
b0 (
b0 '
0&
b0 %
bx $
bx #
bx "
bx !
$end
#5
1&
12
#10
0&
02
#15
b0 "
b0 <
b0 $
b0 >
b0 !
b0 ;
b0 #
b0 =
b100000 B
11
1A
10
1@
b10100 D
0/
0?
1&
12
#20
b100000 B
0&
02
#25
b1 %
1&
12
#30
b100000 B
0&
02
#35
b10 %
b1 .
b1 :
b1 (
b1 4
b1 -
b1 9
b1 '
b1 3
1&
12
#40
b100000 B
0&
02
#45
b11 %
b10 .
b10 :
b10 (
b10 4
b10 -
b10 9
b10 '
b10 3
1&
12
#50
b100000 B
0&
02
#55
b100 %
b11 .
b11 :
b11 (
b11 4
b11 -
b11 9
b11 '
b11 3
1&
12
#60
b100000 B
0&
02
#65
b101 %
b100 .
b100 :
b100 (
b100 4
b100 -
b100 9
b100 '
b100 3
1&
12
#70
b100000 B
0&
02
#75
b110 %
b101 .
b101 :
b101 (
b101 4
b101 -
b101 9
b101 '
b101 3
1&
12
#80
b100000 B
0&
02
#85
b111 %
b110 .
b110 :
b110 (
b110 4
b110 -
b110 9
b110 '
b110 3
1&
12
#90
b100000 B
0&
02
#95
b1000 %
b111 .
b111 :
b111 (
b111 4
b111 -
b111 9
b111 '
b111 3
1&
12
#100
b100000 B
0&
02
#105
b1001 %
b1000 .
b1000 :
b1000 (
b1000 4
b1000 -
b1000 9
b1000 '
b1000 3
1&
12
#110
b100000 B
0&
02
#115
b1010 %
b1001 .
b1001 :
b1001 (
b1001 4
b1001 -
b1001 9
b1001 '
b1001 3
1&
12
#120
b100000 B
0&
02
#125
b1011 %
b1010 .
b1010 :
b1010 (
b1010 4
b1010 -
b1010 9
b1010 '
b1010 3
1&
12
#130
b100000 B
0&
02
#135
b1100 %
b1011 .
b1011 :
b1011 (
b1011 4
b1011 -
b1011 9
b1011 '
b1011 3
1&
12
#140
b100000 B
0&
02
#145
b1101 %
b1100 .
b1100 :
b1100 (
b1100 4
b1100 -
b1100 9
b1100 '
b1100 3
1&
12
#150
b100000 B
0&
02
#155
b1110 %
b1101 .
b1101 :
b1101 (
b1101 4
b1101 -
b1101 9
b1101 '
b1101 3
1&
12
#160
b100000 B
0&
02
#165
b1111 %
b1110 .
b1110 :
b1110 (
b1110 4
b1110 -
b1110 9
b1110 '
b1110 3
1&
12
#170
b100000 B
0&
02
#175
b10000 %
b1111 .
b1111 :
b1111 (
b1111 4
b1111 -
b1111 9
b1111 '
b1111 3
1&
12
#180
b100000 B
0&
02
#185
b10001 %
b10000 .
b10000 :
b10000 (
b10000 4
b10000 -
b10000 9
b10000 '
b10000 3
1&
12
#190
b100000 B
0&
02
#195
b10010 %
b10001 .
b10001 :
b10001 (
b10001 4
b10001 -
b10001 9
b10001 '
b10001 3
1&
12
#200
b100000 B
0&
02
#205
b10011 %
b10010 .
b10010 :
b10010 (
b10010 4
b10010 -
b10010 9
b10010 '
b10010 3
1&
12
#210
b100000 B
0&
02
#215
b10100 %
b10011 .
b10011 :
b10011 (
b10011 4
b10011 -
b10011 9
b10011 '
b10011 3
1&
12
#220
b100000 B
0&
02
#225
01
0A
00
0@
1&
12
#230
b100000 B
0&
02
#235
b0 %
b10100 C
1&
12
#240
b100000 B
0&
02
#245
b1 ,
b1 8
b1 $
b1 >
b1 *
b1 6
b1 "
b1 <
b1 +
b1 7
b1 #
b1 =
b1 )
b1 5
b1 !
b1 ;
b1 %
1&
12
#250
b100000 B
0&
02
#255
b10 ,
b10 8
b10 $
b10 >
b10 *
b10 6
b10 "
b10 <
b10 +
b10 7
b10 #
b10 =
b10 )
b10 5
b10 !
b10 ;
b10 %
1&
12
#260
b100000 B
0&
02
#265
b11 ,
b11 8
b11 $
b11 >
b11 *
b11 6
b11 "
b11 <
b11 +
b11 7
b11 #
b11 =
b11 )
b11 5
b11 !
b11 ;
b11 %
1&
12
#270
b100000 B
0&
02
#275
b100 ,
b100 8
b100 $
b100 >
b100 *
b100 6
b100 "
b100 <
b100 +
b100 7
b100 #
b100 =
b100 )
b100 5
b100 !
b100 ;
b100 %
1&
12
#280
b100000 B
0&
02
#285
b101 ,
b101 8
b101 $
b101 >
b101 *
b101 6
b101 "
b101 <
b101 +
b101 7
b101 #
b101 =
b101 )
b101 5
b101 !
b101 ;
b101 %
1&
12
#290
b100000 B
0&
02
#295
b110 ,
b110 8
b110 $
b110 >
b110 *
b110 6
b110 "
b110 <
b110 +
b110 7
b110 #
b110 =
b110 )
b110 5
b110 !
b110 ;
b110 %
1&
12
#300
b100000 B
0&
02
#305
b111 ,
b111 8
b111 $
b111 >
b111 *
b111 6
b111 "
b111 <
b111 +
b111 7
b111 #
b111 =
b111 )
b111 5
b111 !
b111 ;
b111 %
1&
12
#310
b100000 B
0&
02
#315
b1000 ,
b1000 8
b1000 $
b1000 >
b1000 *
b1000 6
b1000 "
b1000 <
b1000 +
b1000 7
b1000 #
b1000 =
b1000 )
b1000 5
b1000 !
b1000 ;
b1000 %
1&
12
#320
b100000 B
0&
02
#325
b1001 ,
b1001 8
b1001 $
b1001 >
b1001 *
b1001 6
b1001 "
b1001 <
b1001 +
b1001 7
b1001 #
b1001 =
b1001 )
b1001 5
b1001 !
b1001 ;
b1001 %
1&
12
#330
b100000 B
0&
02
#335
b1010 ,
b1010 8
b1010 $
b1010 >
b1010 *
b1010 6
b1010 "
b1010 <
b1010 +
b1010 7
b1010 #
b1010 =
b1010 )
b1010 5
b1010 !
b1010 ;
b1010 %
1&
12
#340
b100000 B
0&
02
#345
b1011 ,
b1011 8
b1011 $
b1011 >
b1011 *
b1011 6
b1011 "
b1011 <
b1011 +
b1011 7
b1011 #
b1011 =
b1011 )
b1011 5
b1011 !
b1011 ;
b1011 %
1&
12
#350
b100000 B
0&
02
#355
b1100 ,
b1100 8
b1100 $
b1100 >
b1100 *
b1100 6
b1100 "
b1100 <
b1100 +
b1100 7
b1100 #
b1100 =
b1100 )
b1100 5
b1100 !
b1100 ;
b1100 %
1&
12
#360
b100000 B
0&
02
#365
b1101 ,
b1101 8
b1101 $
b1101 >
b1101 *
b1101 6
b1101 "
b1101 <
b1101 +
b1101 7
b1101 #
b1101 =
b1101 )
b1101 5
b1101 !
b1101 ;
b1101 %
1&
12
#370
b100000 B
0&
02
#375
b1110 ,
b1110 8
b1110 $
b1110 >
b1110 *
b1110 6
b1110 "
b1110 <
b1110 +
b1110 7
b1110 #
b1110 =
b1110 )
b1110 5
b1110 !
b1110 ;
b1110 %
1&
12
#380
b100000 B
0&
02
#385
b1111 ,
b1111 8
b1111 $
b1111 >
b1111 *
b1111 6
b1111 "
b1111 <
b1111 +
b1111 7
b1111 #
b1111 =
b1111 )
b1111 5
b1111 !
b1111 ;
b1111 %
1&
12
#390
b100000 B
0&
02
#395
b10000 ,
b10000 8
b10000 $
b10000 >
b10000 *
b10000 6
b10000 "
b10000 <
b10000 +
b10000 7
b10000 #
b10000 =
b10000 )
b10000 5
b10000 !
b10000 ;
b10000 %
1&
12
#400
b100000 B
0&
02
#405
b10001 ,
b10001 8
b10001 $
b10001 >
b10001 *
b10001 6
b10001 "
b10001 <
b10001 +
b10001 7
b10001 #
b10001 =
b10001 )
b10001 5
b10001 !
b10001 ;
b10001 %
1&
12
#410
b100000 B
0&
02
#415
b10010 ,
b10010 8
b10010 $
b10010 >
b10010 *
b10010 6
b10010 "
b10010 <
b10010 +
b10010 7
b10010 #
b10010 =
b10010 )
b10010 5
b10010 !
b10010 ;
b10010 %
1&
12
#420
b100000 B
0&
02
#425
b10011 ,
b10011 8
b10011 $
b10011 >
b10011 *
b10011 6
b10011 "
b10011 <
b10011 +
b10011 7
b10011 #
b10011 =
b10011 )
b10011 5
b10011 !
b10011 ;
b10011 %
1&
12
#430
b100000 B
0&
02
#435
b10100 %
1&
12
#440
b100000 B
0&
02
